"filename", "language", "Markdown", "Lua", "C#", "XML", "comment", "blank", "total"
"d:\ro-exec\workspace\HourSteam\Client\Modules\Network\NetworkEntity.lua", "Lua", 0, 243, 0, 0, 3, 33, 279
"d:\ro-exec\workspace\HourSteam\Client\Modules\Network\NetworkPlayer.lua", "Lua", 0, 434, 0, 0, 4, 75, 513
"d:\ro-exec\workspace\HourSteam\Client\Modules\Network\NetworkStage.lua", "Lua", 0, 50, 0, 0, 0, 11, 61
"d:\ro-exec\workspace\HourSteam\Client\Modules\Network\Networker.lua", "Lua", 0, 205, 0, 0, 0, 36, 241
"d:\ro-exec\workspace\HourSteam\Client\Modules\Other\PvpArena.lua", "Lua", 0, 259, 0, 0, 3, 41, 303
"d:\ro-exec\workspace\HourSteam\Client\Modules\Other\UI.lua", "Lua", 0, 238, 0, 0, 1, 41, 280
"d:\ro-exec\workspace\HourSteam\Client\Modules\Other\Util.lua", "Lua", 0, 202, 0, 0, 0, 17, 219
"d:\ro-exec\workspace\HourSteam\Client\Modules\Sync\Game.lua", "Lua", 0, 428, 0, 0, 15, 86, 529
"d:\ro-exec\workspace\HourSteam\Client\Modules\Sync\Player.lua", "Lua", 0, 207, 0, 0, 2, 32, 241
"d:\ro-exec\workspace\HourSteam\Client\boot.lua", "Lua", 0, 35, 0, 0, 1, 2, 38
"d:\ro-exec\workspace\HourSteam\Proxy\Catchup.cs", "C#", 0, 0, 11, 0, 0, 3, 14
"d:\ro-exec\workspace\HourSteam\Proxy\Logger.cs", "C#", 0, 0, 24, 0, 0, 4, 28
"d:\ro-exec\workspace\HourSteam\Proxy\Main.cs", "C#", 0, 0, 57, 0, 0, 9, 66
"d:\ro-exec\workspace\HourSteam\Proxy\Network\LobbyMetadata.cs", "C#", 0, 0, 37, 0, 0, 7, 44
"d:\ro-exec\workspace\HourSteam\Proxy\Network\MessageIds.cs", "C#", 0, 0, 36, 0, 0, 2, 38
"d:\ro-exec\workspace\HourSteam\Proxy\Network\Messages\CONNECTED_TO_STEAM.cs", "C#", 0, 0, 15, 0, 3, 3, 21
"d:\ro-exec\workspace\HourSteam\Proxy\Network\Messages\Enemies\ENEMY_ANIMATION_CHANGE.cs", "C#", 0, 0, 50, 0, 0, 9, 59
"d:\ro-exec\workspace\HourSteam\Proxy\Network\Messages\Enemies\ENEMY_DAMAGE.cs", "C#", 0, 0, 55, 0, 0, 11, 66
"d:\ro-exec\workspace\HourSteam\Proxy\Network\Messages\Enemies\ENEMY_DEATH.cs", "C#", 0, 0, 41, 0, 3, 9, 53
"d:\ro-exec\workspace\HourSteam\Proxy\Network\Messages\Enemies\ENEMY_HEALTH_CHANGE.cs", "C#", 0, 0, 51, 0, 0, 11, 62
"d:\ro-exec\workspace\HourSteam\Proxy\Network\Messages\Enemies\ENEMY_STAGE_DATA.cs", "C#", 0, 0, 52, 0, 0, 8, 60
"d:\ro-exec\workspace\HourSteam\Proxy\Network\Messages\Enemies\ENEMY_STAT_CHANGE.cs", "C#", 0, 0, 59, 0, 4, 12, 75
"d:\ro-exec\workspace\HourSteam\Proxy\Network\Messages\Enemies\ENEMY_UPDATE.cs", "C#", 0, 0, 74, 0, 0, 10, 84
"d:\ro-exec\workspace\HourSteam\Proxy\Network\Messages\FETCH_LOBBY_LIST.cs", "C#", 0, 0, 41, 0, 3, 10, 54
"d:\ro-exec\workspace\HourSteam\Proxy\Network\Messages\GAME_END.cs", "C#", 0, 0, 35, 0, 3, 6, 44
"d:\ro-exec\workspace\HourSteam\Proxy\Network\Messages\LEAVE_STEAM.cs", "C#", 0, 0, 18, 0, 3, 4, 25
"d:\ro-exec\workspace\HourSteam\Proxy\Network\Messages\Player\PLAYER_ACTION_FUNCTION.cs", "C#", 0, 0, 53, 0, 3, 14, 70
"d:\ro-exec\workspace\HourSteam\Proxy\Network\Messages\Player\PLAYER_CLASS.cs", "C#", 0, 0, 80, 0, 4, 13, 97
"d:\ro-exec\workspace\HourSteam\Proxy\Network\Messages\Player\PLAYER_DAMAGE.cs", "C#", 0, 0, 61, 0, 3, 11, 75
"d:\ro-exec\workspace\HourSteam\Proxy\Network\Messages\Player\PLAYER_DISCONNECT.cs", "C#", 0, 0, 36, 0, 3, 7, 46
"d:\ro-exec\workspace\HourSteam\Proxy\Network\Messages\Player\PLAYER_HEALTH.cs", "C#", 0, 0, 50, 0, 3, 12, 65
"d:\ro-exec\workspace\HourSteam\Proxy\Network\Messages\Player\PLAYER_INPUT_FUNCTION.cs", "C#", 0, 0, 113, 0, 5, 14, 132
"d:\ro-exec\workspace\HourSteam\Proxy\Network\Messages\Player\PLAYER_PVP_DAMAGE.cs", "C#", 0, 0, 53, 0, 0, 16, 69
"d:\ro-exec\workspace\HourSteam\Proxy\Network\Messages\Player\PLAYER_REGISTER.cs", "C#", 0, 0, 124, 0, 6, 27, 157
"d:\ro-exec\workspace\HourSteam\Proxy\Network\Messages\Player\PLAYER_STAT_CHANGE.cs", "C#", 0, 0, 64, 0, 4, 14, 82
"d:\ro-exec\workspace\HourSteam\Proxy\Network\Messages\Player\PLAYER_UPDATE.cs", "C#", 0, 0, 110, 0, 5, 18, 133
"d:\ro-exec\workspace\HourSteam\Proxy\Network\Messages\Talent\TALENT_CHOSEN.cs", "C#", 0, 0, 49, 0, 3, 14, 66
"d:\ro-exec\workspace\HourSteam\Proxy\Network\Messages\Talent\TALENT_CLEAR.cs", "C#", 0, 0, 42, 0, 4, 12, 58
"d:\ro-exec\workspace\HourSteam\Proxy\Network\Messages\Talent\TALENT_GAINED.cs", "C#", 0, 0, 50, 0, 3, 15, 68
"d:\ro-exec\workspace\HourSteam\Proxy\Network\Messages\Talent\TALENT_POPUP.cs", "C#", 0, 0, 33, 0, 3, 7, 43
"d:\ro-exec\workspace\HourSteam\Proxy\Network\Messages\Talent\TALENT_POPUP_START.cs", "C#", 0, 0, 41, 0, 3, 12, 56
"d:\ro-exec\workspace\HourSteam\Proxy\Network\NetworkHandler.cs", "C#", 0, 0, 166, 0, 1, 40, 207
"d:\ro-exec\workspace\HourSteam\Proxy\Network\NetworkMessage.cs", "C#", 0, 0, 15, 0, 0, 3, 18
"d:\ro-exec\workspace\HourSteam\Proxy\Network\NetworkReader.cs", "C#", 0, 0, 85, 0, 0, 17, 102
"d:\ro-exec\workspace\HourSteam\Proxy\Network\NetworkSender.cs", "C#", 0, 0, 51, 0, 0, 6, 57
"d:\ro-exec\workspace\HourSteam\Proxy\Network\NetworkWriter.cs", "C#", 0, 0, 47, 0, 0, 13, 60
"d:\ro-exec\workspace\HourSteam\Proxy\Network\Roblox\RobloxReader.cs", "C#", 0, 0, 57, 0, 0, 12, 69
"d:\ro-exec\workspace\HourSteam\Proxy\Network\Roblox\RobloxWriter.cs", "C#", 0, 0, 39, 0, 0, 8, 47
"d:\ro-exec\workspace\HourSteam\Proxy\Program.cs", "C#", 0, 0, 16, 0, 1, 3, 20
"d:\ro-exec\workspace\HourSteam\Proxy\Properties\PublishProfiles\FolderProfile.pubxml", "XML", 0, 0, 0, 16, 3, 0, 19
"d:\ro-exec\workspace\HourSteam\Proxy\Proxy.csproj", "XML", 0, 0, 0, 30, 0, 7, 37
"d:\ro-exec\workspace\HourSteam\Proxy\Server\BaseEntity.cs", "C#", 0, 0, 21, 0, 0, 5, 26
"d:\ro-exec\workspace\HourSteam\Proxy\Server\Entity.cs", "C#", 0, 0, 25, 0, 0, 4, 29
"d:\ro-exec\workspace\HourSteam\Proxy\Server\EntityManager.cs", "C#", 0, 0, 17, 0, 0, 3, 20
"d:\ro-exec\workspace\HourSteam\Proxy\Server\EntityStat.cs", "C#", 0, 0, 15, 0, 0, 3, 18
"d:\ro-exec\workspace\HourSteam\Proxy\Server\Player.cs", "C#", 0, 0, 25, 0, 0, 6, 31
"d:\ro-exec\workspace\HourSteam\Proxy\Server\PlayerManager.cs", "C#", 0, 0, 31, 0, 0, 5, 36
"d:\ro-exec\workspace\HourSteam\Proxy\Server\Stage\EntityStageData.cs", "C#", 0, 0, 21, 0, 0, 3, 24
"d:\ro-exec\workspace\HourSteam\Proxy\Server\Stage\Stage.cs", "C#", 0, 0, 25, 0, 0, 5, 30
"d:\ro-exec\workspace\HourSteam\Proxy\Server\Stage\StageManager.cs", "C#", 0, 0, 37, 0, 0, 4, 41
"d:\ro-exec\workspace\HourSteam\Proxy\Server\Stage\Stages\DowncastDays.cs", "C#", 0, 0, 30, 0, 0, 6, 36
"d:\ro-exec\workspace\HourSteam\Proxy\Server\Stage\Stages\EndlessTimeless.cs", "C#", 0, 0, 30, 0, 0, 6, 36
"d:\ro-exec\workspace\HourSteam\Proxy\Server\Stage\Stages\LightBeneathClosedEyes.cs", "C#", 0, 0, 22, 0, 0, 4, 26
"d:\ro-exec\workspace\HourSteam\Proxy\Server\Stage\Stages\MiraiMirror.cs", "C#", 0, 0, 32, 0, 0, 7, 39
"d:\ro-exec\workspace\HourSteam\Proxy\Server\Stage\Stages\MiraiMirror2.cs", "C#", 0, 0, 23, 0, 0, 4, 27
"d:\ro-exec\workspace\HourSteam\Proxy\Server\Stage\Stages\MiraiMirror3.cs", "C#", 0, 0, 23, 0, 0, 4, 27
"d:\ro-exec\workspace\HourSteam\Proxy\Server\Stage\Stages\PeacockPeaks.cs", "C#", 0, 0, 30, 0, 0, 6, 36
"d:\ro-exec\workspace\HourSteam\Proxy\Server\Stage\Stages\SinkingSands.cs", "C#", 0, 0, 19, 0, 0, 3, 22
"d:\ro-exec\workspace\HourSteam\README.md", "Markdown", 67, 0, 0, 0, 0, 7, 74
"Total", "-", 67, 2301, 2517, 46, 105, 892, 5928